[gd_scene load_steps=4 format=1]

[ext_resource path="res://assets/textures/menu button/circular button 400x400.tex" type="Texture" id=1]
[ext_resource path="res://assets/textures/menu button/circular button 400x400.pbm" type="BitMap" id=2]
[ext_resource path="res://scripts/data/Menu Button.gd" type="Script" id=3]

[node name="Menu Button" type="TextureButton"]

visibility/visible = false
focus/ignore_mouse = false
focus/stop_mouse = true
size_flags/horizontal = 2
size_flags/vertical = 2
margin/left = -200.0
margin/top = -200.0
margin/right = 200.0
margin/bottom = 200.0
toggle_mode = false
enabled_focus_mode = 2
shortcut = null
textures/normal = ExtResource( 1 )
textures/click_mask = ExtResource( 2 )
params/resize_mode = 0
params/stretch_mode = 0
script/script = ExtResource( 3 )


