[gd_scene load_steps=2 format=1]

[ext_resource path="res://scripts/gameplay/Shapes Reference Sheet.gd" type="Script" id=1]

[node name="Shapes Engine Reference Sheet" type="Node2D"]

script/script = ExtResource( 1 )


