[gd_scene load_steps=4 format=1]

[ext_resource path="res://scripts/menu/Terms Of Service.gd" type="Script" id=1]
[ext_resource path="res://assets/textures/ToS Background.tex" type="Texture" id=2]
[ext_resource path="res://assets/fonts/Asimov Theme.tres" type="Theme" id=3]

[node name="Terms and Conditions" type="Node2D"]

script/script = ExtResource( 1 )

[node name="Background" type="Sprite" parent="."]

transform/pos = Vector2( 600, 0 )
transform/rot = -90.0
transform/scale = Vector2( 0.566406, 1 )
texture = ExtResource( 2 )
centered = false

[node name="ACCEPT" type="Button" parent="."]

focus/ignore_mouse = false
focus/stop_mouse = true
size_flags/horizontal = 2
size_flags/vertical = 2
theme/theme = ExtResource( 3 )
margin/left = 355.0
margin/top = 70.0
margin/right = 540.0
margin/bottom = 130.0
toggle_mode = false
enabled_focus_mode = 2
shortcut = null
text = "ACCEPT"
flat = true

[node name="DECLINE" type="Button" parent="."]

focus/ignore_mouse = false
focus/stop_mouse = true
size_flags/horizontal = 2
size_flags/vertical = 2
theme/theme = ExtResource( 3 )
margin/left = 60.0
margin/top = 70.0
margin/right = 245.0
margin/bottom = 130.0
toggle_mode = false
enabled_focus_mode = 2
shortcut = null
text = "DECLINE"
flat = true

[node name="ToS" type="RichTextLabel" parent="."]

rect/scale = Vector2( 1.5, 1.5 )
focus/ignore_mouse = false
focus/stop_mouse = true
size_flags/horizontal = 2
size_flags/vertical = 0
margin/left = 30.0
margin/top = 30.0
margin/right = 400.0
margin/bottom = 50.0
bbcode/enabled = true
bbcode/bbcode = ""
visible_characters = -1
percent_visible = 1.0

[connection signal="pressed" from="ACCEPT" to="." method="_on_ACCEPT_pressed"]

[connection signal="pressed" from="DECLINE" to="." method="_on_DECLINE_pressed"]

[connection signal="meta_clicked" from="ToS" to="." method="_on_ToS_meta_clicked"]


